Journal (reproducible report)
…
covid_data_tbl<- read_csv("https://opendata.ecdc.europa.eu/covid19/casedistribution/csv")

#Tables for Challenge 2 before plotting
covid_data_tbl%>%
  
  mutate(across(countriesAndTerritories, str_replace_all, "_", " ")) %>%
  mutate(countriesAndTerritories = case_when(
    
    countriesAndTerritories == "United Kingdom" ~ "UK",
    countriesAndTerritories == "United States of America" ~ "USA",
    countriesAndTerritories == "Czechia" ~ "Czech Republic",
    TRUE ~ countriesAndTerritories
  ))

## # A tibble: 59,770 x 12
##    dateRep   day month  year cases deaths countriesAndTer~ geoId
##    <chr>   <dbl> <dbl> <dbl> <dbl>  <dbl> <chr>            <chr>
##  1 04/12/~     4    12  2020   119      5 Afghanistan      AF   
##  2 03/12/~     3    12  2020   202     19 Afghanistan      AF   
##  3 02/12/~     2    12  2020   400     48 Afghanistan      AF   
##  4 01/12/~     1    12  2020   272     11 Afghanistan      AF   
##  5 30/11/~    30    11  2020     0      0 Afghanistan      AF   
##  6 29/11/~    29    11  2020   228     11 Afghanistan      AF   
##  7 28/11/~    28    11  2020   214     15 Afghanistan      AF   
##  8 27/11/~    27    11  2020     0      0 Afghanistan      AF   
##  9 26/11/~    26    11  2020   200     12 Afghanistan      AF   
## 10 25/11/~    25    11  2020   185     13 Afghanistan      AF   
## # ... with 59,760 more rows, and 4 more variables: countryterritoryCode <chr>,
## #   popData2019 <dbl>, continentExp <chr>,
## #   `Cumulative_number_for_14_days_of_COVID-19_cases_per_100000` <dbl>
…
